sim: info: reading from trace file - trace1.txt
sim: debug: 

Summary statistics for P0: 
configuration: protocol: MESI; line size: 16; number of lines: 128;
invalidations: 401
hit rate: 0.988729
miss rate: 0.0112712
loads from main memory: 554
write backs to main memory: 402
p2p writes: 9
p2p reads: 0
write updates sent: 0
write updates received: 0
write updates ignored: 0


sim: debug: 

Summary statistics for P1: 
configuration: protocol: MESI; line size: 16; number of lines: 128;
invalidations: 401
hit rate: 0.988729
miss rate: 0.0112712
loads from main memory: 545
write backs to main memory: 402
p2p writes: 9
p2p reads: 9
write updates sent: 0
write updates received: 0
write updates ignored: 0


sim: debug: 

Summary statistics for P2: 
configuration: protocol: MESI; line size: 16; number of lines: 128;
invalidations: 401
hit rate: 0.988729
miss rate: 0.0112712
loads from main memory: 545
write backs to main memory: 402
p2p writes: 9
p2p reads: 9
write updates sent: 0
write updates received: 0
write updates ignored: 0


sim: debug: 

Summary statistics for P3: 
configuration: protocol: MESI; line size: 16; number of lines: 128;
invalidations: 402
hit rate: 0.988729
miss rate: 0.0112712
loads from main memory: 545
write backs to main memory: 402
p2p writes: 0
p2p reads: 9
write updates sent: 0
write updates received: 0
write updates ignored: 0


